State of the States map analysis
…
quartz_off_screen 
                2 

Code

# 7) Print in document
topic_counts

# A tibble: 36 × 2
   topic                         count
   <chr>                         <int>
 1 Cybersecurity                    52
 2 Information Technology           45
 3 Broadband                        38
 4 Administrative Reorganization    29
 5 Interoperability                 29
 6 Website/Portal                   28
 7 Technology Modernization         17
 8 Data Sharing                     14
 9 Procurement                      13
10 Public Safety                    13
# ℹ 26 more rows
…
quartz_off_screen 
                2 

Code

# 7) Print in document
ai_topic_counts

# A tibble: 21 × 2
   topic                 count
   <chr>                 <int>
 1 Criminal/Legal System    11
 2 Education                10
 3 Civil Rights              8
 4 Public Health             8
 5 Public Safety             8
 6 Voting/Elections          3
 7 Blockchain                2
 8 Data Governance           2
 9 Data Privacy              2
10 Emergency Management      2
# ℹ 11 more rows
…
insights_q10 <- tibble(
  statement = c(
    glue("On average, the number of executive orders around digital transformation in government have {eo_dir} over the years."),
    glue("On average, the number of AI legislations around digital transformation in government have {ai_dir} over the years.")
  )
)

# 5) Save + print
if (!dir.exists(here("output"))) dir.create(here("output"), recursive = TRUE)
write_csv(trend_long,   here("output", "trend_data_q10.csv"))
write_csv(insights_q10, here("output", "insights_q10.csv"))

trend_long

# A tibble: 26 × 3
    year type             count
   <int> <chr>            <int>
 1  2013 AI legislations      0
 2  2013 Executive orders    26
 3  2014 AI legislations      0
 4  2014 Executive orders    22
 5  2015 AI legislations      0
 6  2015 Executive orders    34
 7  2016 AI legislations      0
 8  2016 Executive orders    24
 9  2017 AI legislations      0
10  2017 Executive orders    34
# ℹ 16 more rows
…
